{
    "SMSDirectoryData": {
        "datetime": 20190529065745,
        "sync": "notices",
        "type": "full",
        "sms": "KAMAR 912.29",
        "version": 507,
        "schools": [
            {
                "index": 1,
                "moeCode": "0293",
                "name": "Nayland College",
                "type": 40,
                "authoritative": true
            }
        ],
        "notices": {
            "count": 38,
            "data": [
                {
                    "uuid": "G8MSHEEEW218CJ3RZIM0ZXRO",
                    "DateStart": "20190528",
                    "DateFinish": "20190529",
                    "PublishWeb": true,
                    "Level": "3. Cultural",
                    "Subject": "Dance Company",
                    "Body": "is on Wednesday afternoons in the PAC. Come and join us to learn the dances for Vast Dance Festival, and to have some dancing fun!",
                    "Teacher": "DHD",
                    "MeetingDate": "00000000",
                    "MeetingTime": "000000",
                    "MeetingPlace": null
                },
                {
                    "uuid": "G8MSHEEEW218CJ3RZIM0ZXRO",
                    "DateStart": "20190604",
                    "DateFinish": "20190605",
                    "PublishWeb": true,
                    "Level": "3. Cultural",
                    "Subject": "Dance Company",
                    "Body": "is on Wednesday afternoons in the PAC. Come and join us to learn the dances for Vast Dance Festival, and to have some dancing fun!",
                    "Teacher": "DHD",
                    "MeetingDate": "00000000",
                    "MeetingTime": "000000",
                    "MeetingPlace": null
                },
                {
                    "uuid": "G8MSHEEEW218CJ3RZIM0ZXRO",
                    "DateStart": "20190611",
                    "DateFinish": "20190612",
                    "PublishWeb": true,
                    "Level": "3. Cultural",
                    "Subject": "Dance Company",
                    "Body": "is on Wednesday afternoons in the PAC. Come and join us to learn the dances for Vast Dance Festival, and to have some dancing fun!",
                    "Teacher": "DHD",
                    "MeetingDate": "00000000",
                    "MeetingTime": "000000",
                    "MeetingPlace": null
                },
                {
                    "uuid": "G8MSHEEEW218CJ3RZIM0ZXRO",
                    "DateStart": "20190618",
                    "DateFinish": "20190619",
                    "PublishWeb": true,
                    "Level": "3. Cultural",
                    "Subject": "Dance Company",
                    "Body": "is on Wednesday afternoons in the PAC. Come and join us to learn the dances for Vast Dance Festival, and to have some dancing fun!",
                    "Teacher": "DHD",
                    "MeetingDate": "00000000",
                    "MeetingTime": "000000",
                    "MeetingPlace": null
                },
                {
                    "uuid": "G8MSHEEEW218CJ3RZIM0ZXRO",
                    "DateStart": "20190625",
                    "DateFinish": "20190626",
                    "PublishWeb": true,
                    "Level": "3. Cultural",
                    "Subject": "Dance Company",
                    "Body": "is on Wednesday afternoons in the PAC. Come and join us to learn the dances for Vast Dance Festival, and to have some dancing fun!",
                    "Teacher": "DHD",
                    "MeetingDate": "00000000",
                    "MeetingTime": "000000",
                    "MeetingPlace": null
                },
                {
                    "uuid": "G8MSHEEEW218CJ3RZIM0ZXRO",
                    "DateStart": "20190702",
                    "DateFinish": "20190703",
                    "PublishWeb": true,
                    "Level": "3. Cultural",
                    "Subject": "Dance Company",
                    "Body": "is on Wednesday afternoons in the PAC. Come and join us to learn the dances for Vast Dance Festival, and to have some dancing fun!",
                    "Teacher": "DHD",
                    "MeetingDate": "00000000",
                    "MeetingTime": "000000",
                    "MeetingPlace": null
                },
                {
                    "uuid": "3F2QZXKMCJ5HSBQ8Z4LBC56W",
                    "DateStart": "20190603",
                    "DateFinish": "20190604",
                    "PublishWeb": true,
                    "Level": "3. Cultural",
                    "Subject": "Drama Company",
                    "Body": "is on every Tuesday afternoon in the PAC.",
                    "Teacher": "DHD",
                    "MeetingDate": "00000000",
                    "MeetingTime": "000000",
                    "MeetingPlace": null
                },
                {
                    "uuid": "3F2QZXKMCJ5HSBQ8Z4LBC56W",
                    "DateStart": "20190610",
                    "DateFinish": "20190611",
                    "PublishWeb": true,
                    "Level": "3. Cultural",
                    "Subject": "Drama Company",
                    "Body": "is on every Tuesday afternoon in the PAC.",
                    "Teacher": "DHD",
                    "MeetingDate": "00000000",
                    "MeetingTime": "000000",
                    "MeetingPlace": null
                },
                {
                    "uuid": "3F2QZXKMCJ5HSBQ8Z4LBC56W",
                    "DateStart": "20190617",
                    "DateFinish": "20190618",
                    "PublishWeb": true,
                    "Level": "3. Cultural",
                    "Subject": "Drama Company",
                    "Body": "is on every Tuesday afternoon in the PAC.",
                    "Teacher": "DHD",
                    "MeetingDate": "00000000",
                    "MeetingTime": "000000",
                    "MeetingPlace": null
                },
                {
                    "uuid": "3F2QZXKMCJ5HSBQ8Z4LBC56W",
                    "DateStart": "20190624",
                    "DateFinish": "20190625",
                    "PublishWeb": true,
                    "Level": "3. Cultural",
                    "Subject": "Drama Company",
                    "Body": "is on every Tuesday afternoon in the PAC.",
                    "Teacher": "DHD",
                    "MeetingDate": "00000000",
                    "MeetingTime": "000000",
                    "MeetingPlace": null
                },
                {
                    "uuid": "3F2QZXKMCJ5HSBQ8Z4LBC56W",
                    "DateStart": "20190701",
                    "DateFinish": "20190702",
                    "PublishWeb": true,
                    "Level": "3. Cultural",
                    "Subject": "Drama Company",
                    "Body": "is on every Tuesday afternoon in the PAC.",
                    "Teacher": "DHD",
                    "MeetingDate": "00000000",
                    "MeetingTime": "000000",
                    "MeetingPlace": null
                },
                {
                    "uuid": "LHLG3JAHF0426YSLPVDR9P8X",
                    "DateStart": "20190604",
                    "DateFinish": "20190604",
                    "PublishWeb": true,
                    "Level": "2. Meetings",
                    "Subject": "Nayland Pride",
                    "Body": "meets interval and lunchtimes on Tuesdays in ROOM 14.",
                    "Teacher": "DHD",
                    "MeetingDate": "00000000",
                    "MeetingTime": "000000",
                    "MeetingPlace": null
                },
                {
                    "uuid": "LHLG3JAHF0426YSLPVDR9P8X",
                    "DateStart": "20190611",
                    "DateFinish": "20190611",
                    "PublishWeb": true,
                    "Level": "2. Meetings",
                    "Subject": "Nayland Pride",
                    "Body": "meets interval and lunchtimes on Tuesdays in ROOM 14.",
                    "Teacher": "DHD",
                    "MeetingDate": "00000000",
                    "MeetingTime": "000000",
                    "MeetingPlace": null
                },
                {
                    "uuid": "LHLG3JAHF0426YSLPVDR9P8X",
                    "DateStart": "20190618",
                    "DateFinish": "20190618",
                    "PublishWeb": true,
                    "Level": "2. Meetings",
                    "Subject": "Nayland Pride",
                    "Body": "meets interval and lunchtimes on Tuesdays in ROOM 14.",
                    "Teacher": "DHD",
                    "MeetingDate": "00000000",
                    "MeetingTime": "000000",
                    "MeetingPlace": null
                },
                {
                    "uuid": "LHLG3JAHF0426YSLPVDR9P8X",
                    "DateStart": "20190625",
                    "DateFinish": "20190625",
                    "PublishWeb": true,
                    "Level": "2. Meetings",
                    "Subject": "Nayland Pride",
                    "Body": "meets interval and lunchtimes on Tuesdays in ROOM 14.",
                    "Teacher": "DHD",
                    "MeetingDate": "00000000",
                    "MeetingTime": "000000",
                    "MeetingPlace": null
                },
                {
                    "uuid": "LHLG3JAHF0426YSLPVDR9P8X",
                    "DateStart": "20190702",
                    "DateFinish": "20190702",
                    "PublishWeb": true,
                    "Level": "2. Meetings",
                    "Subject": "Nayland Pride",
                    "Body": "meets interval and lunchtimes on Tuesdays in ROOM 14.",
                    "Teacher": "DHD",
                    "MeetingDate": "00000000",
                    "MeetingTime": "000000",
                    "MeetingPlace": null
                },
                {
                    "uuid": "F8UANVSSSB52KZZB8FBHCAGQ",
                    "DateStart": "20190529",
                    "DateFinish": "20190529",
                    "PublishWeb": true,
                    "Level": "5. Sports",
                    "Subject": "Ultimate Frisbee",
                    "Body": "today lunch time on the Top Field",
                    "Teacher": "DHD",
                    "MeetingDate": "00000000",
                    "MeetingTime": "000000",
                    "MeetingPlace": null
                },
                {
                    "uuid": "F8UANVSSSB52KZZB8FBHCAGQ",
                    "DateStart": "20190605",
                    "DateFinish": "20190605",
                    "PublishWeb": true,
                    "Level": "5. Sports",
                    "Subject": "Ultimate Frisbee",
                    "Body": "today lunch time on the Top Field",
                    "Teacher": "DHD",
                    "MeetingDate": "00000000",
                    "MeetingTime": "000000",
                    "MeetingPlace": null
                },
                {
                    "uuid": "F8UANVSSSB52KZZB8FBHCAGQ",
                    "DateStart": "20190612",
                    "DateFinish": "20190612",
                    "PublishWeb": true,
                    "Level": "5. Sports",
                    "Subject": "Ultimate Frisbee",
                    "Body": "today lunch time on the Top Field",
                    "Teacher": "DHD",
                    "MeetingDate": "00000000",
                    "MeetingTime": "000000",
                    "MeetingPlace": null
                },
                {
                    "uuid": "F8UANVSSSB52KZZB8FBHCAGQ",
                    "DateStart": "20190619",
                    "DateFinish": "20190619",
                    "PublishWeb": true,
                    "Level": "5. Sports",
                    "Subject": "Ultimate Frisbee",
                    "Body": "today lunch time on the Top Field",
                    "Teacher": "DHD",
                    "MeetingDate": "00000000",
                    "MeetingTime": "000000",
                    "MeetingPlace": null
                },
                {
                    "uuid": "F8UANVSSSB52KZZB8FBHCAGQ",
                    "DateStart": "20190626",
                    "DateFinish": "20190626",
                    "PublishWeb": true,
                    "Level": "5. Sports",
                    "Subject": "Ultimate Frisbee",
                    "Body": "today lunch time on the Top Field",
                    "Teacher": "DHD",
                    "MeetingDate": "00000000",
                    "MeetingTime": "000000",
                    "MeetingPlace": null
                },
                {
                    "uuid": "F8UANVSSSB52KZZB8FBHCAGQ",
                    "DateStart": "20190703",
                    "DateFinish": "20190703",
                    "PublishWeb": true,
                    "Level": "5. Sports",
                    "Subject": "Ultimate Frisbee",
                    "Body": "today lunch time on the Top Field",
                    "Teacher": "DHD",
                    "MeetingDate": "00000000",
                    "MeetingTime": "000000",
                    "MeetingPlace": null
                },
                {
                    "uuid": "8LLW81HA0GIBSPBEKXKI0LVG",
                    "DateStart": "20190603",
                    "DateFinish": "20190603",
                    "PublishWeb": true,
                    "Level": "1. General",
                    "Subject": "Science tutorials",
                    "Body": "Every Monday after school in the Library",
                    "Teacher": "DHD",
                    "MeetingDate": "00000000",
                    "MeetingTime": "000000",
                    "MeetingPlace": null
                },
                {
                    "uuid": "8LLW81HA0GIBSPBEKXKI0LVG",
                    "DateStart": "20190610",
                    "DateFinish": "20190610",
                    "PublishWeb": true,
                    "Level": "1. General",
                    "Subject": "Science tutorials",
                    "Body": "Every Monday after school in the Library",
                    "Teacher": "DHD",
                    "MeetingDate": "00000000",
                    "MeetingTime": "000000",
                    "MeetingPlace": null
                },
                {
                    "uuid": "8LLW81HA0GIBSPBEKXKI0LVG",
                    "DateStart": "20190617",
                    "DateFinish": "20190617",
                    "PublishWeb": true,
                    "Level": "1. General",
                    "Subject": "Science tutorials",
                    "Body": "Every Monday after school in the Library",
                    "Teacher": "DHD",
                    "MeetingDate": "00000000",
                    "MeetingTime": "000000",
                    "MeetingPlace": null
                },
                {
                    "uuid": "8LLW81HA0GIBSPBEKXKI0LVG",
                    "DateStart": "20190624",
                    "DateFinish": "20190624",
                    "PublishWeb": true,
                    "Level": "1. General",
                    "Subject": "Science tutorials",
                    "Body": "Every Monday after school in the Library",
                    "Teacher": "DHD",
                    "MeetingDate": "00000000",
                    "MeetingTime": "000000",
                    "MeetingPlace": null
                },
                {
                    "uuid": "8LLW81HA0GIBSPBEKXKI0LVG",
                    "DateStart": "20190701",
                    "DateFinish": "20190701",
                    "PublishWeb": true,
                    "Level": "1. General",
                    "Subject": "Science tutorials",
                    "Body": "Every Monday after school in the Library",
                    "Teacher": "DHD",
                    "MeetingDate": "00000000",
                    "MeetingTime": "000000",
                    "MeetingPlace": null
                },
                {
                    "uuid": "15LWXDWYVLS0C6ZRNLNQLNVX",
                    "DateStart": "20190530",
                    "DateFinish": "20190530",
                    "PublishWeb": true,
                    "Level": "2. Meetings",
                    "Subject": "SHINE",
                    "Body": "is on today. Please meet Ivy in the hall foyer at the beginning of Period 3.",
                    "Teacher": "DHD",
                    "MeetingDate": "00000000",
                    "MeetingTime": "000000",
                    "MeetingPlace": null
                },
                {
                    "uuid": "15LWXDWYVLS0C6ZRNLNQLNVX",
                    "DateStart": "20190606",
                    "DateFinish": "20190606",
                    "PublishWeb": true,
                    "Level": "2. Meetings",
                    "Subject": "SHINE",
                    "Body": "is on today. Please meet Ivy in the Seminar Room (Library) at the beginning of Period 3.",
                    "Teacher": "DHD",
                    "MeetingDate": "00000000",
                    "MeetingTime": "000000",
                    "MeetingPlace": null
                },
                {
                    "uuid": "15LWXDWYVLS0C6ZRNLNQLNVX",
                    "DateStart": "20190613",
                    "DateFinish": "20190613",
                    "PublishWeb": true,
                    "Level": "2. Meetings",
                    "Subject": "SHINE",
                    "Body": "is on today. Please meet Ivy in the Seminar Room (Library) at the beginning of Period 3.",
                    "Teacher": "DHD",
                    "MeetingDate": "00000000",
                    "MeetingTime": "000000",
                    "MeetingPlace": null
                },
                {
                    "uuid": "15LWXDWYVLS0C6ZRNLNQLNVX",
                    "DateStart": "20190620",
                    "DateFinish": "20190620",
                    "PublishWeb": true,
                    "Level": "2. Meetings",
                    "Subject": "SHINE",
                    "Body": "is on today. Please meet Ivy in the Seminar Room (Library) at the beginning of Period 3.",
                    "Teacher": "DHD",
                    "MeetingDate": "00000000",
                    "MeetingTime": "000000",
                    "MeetingPlace": null
                },
                {
                    "uuid": "15LWXDWYVLS0C6ZRNLNQLNVX",
                    "DateStart": "20190627",
                    "DateFinish": "20190627",
                    "PublishWeb": true,
                    "Level": "2. Meetings",
                    "Subject": "SHINE",
                    "Body": "is on today. Please meet Ivy in the Seminar Room (Library) at the beginning of Period 3.",
                    "Teacher": "DHD",
                    "MeetingDate": "00000000",
                    "MeetingTime": "000000",
                    "MeetingPlace": null
                },
                {
                    "uuid": "15LWXDWYVLS0C6ZRNLNQLNVX",
                    "DateStart": "20190704",
                    "DateFinish": "20190704",
                    "PublishWeb": true,
                    "Level": "2. Meetings",
                    "Subject": "SHINE",
                    "Body": "is on today. Please meet Ivy in the Seminar Room (Library) at the beginning of Period 3.",
                    "Teacher": "DHD",
                    "MeetingDate": "00000000",
                    "MeetingTime": "000000",
                    "MeetingPlace": null
                },
                {
                    "uuid": "1PRSBI6RW72RCR4P1N0EML07",
                    "DateStart": "20190527",
                    "DateFinish": "20190529",
                    "PublishWeb": true,
                    "Level": "4. Careers",
                    "Subject": "Senior Students",
                    "Body": "It's not too late to attend the Nelson Industry and Trades Expo on Tuesday 28 May, 4-6:30pm. Come along and talk direct to employers and suss out career pathways. See you there!",
                    "Teacher": "DHD",
                    "MeetingDate": "00000000",
                    "MeetingTime": "000000",
                    "MeetingPlace": null
                },
                {
                    "uuid": "6XF6Y1WWXNFEUYLGYRNP6N3E",
                    "DateStart": "20190527",
                    "DateFinish": "20190530",
                    "PublishWeb": true,
                    "Level": "1. General",
                    "Subject": "Achievement Conference feedback",
                    "Body": "Thank you to those who have returned feedback forms for the Achievement Conferences. Please keep both parent and student forms coming in this week. They can be returned to the box in the Student Centre, or given to your tutor teacher.",
                    "Teacher": "DHD",
                    "MeetingDate": "00000000",
                    "MeetingTime": "000000",
                    "MeetingPlace": null
                },
                {
                    "uuid": "4FVL7RDOYGRKDFX6Q0PKO5ZO",
                    "DateStart": "20190528",
                    "DateFinish": "20190530",
                    "PublishWeb": true,
                    "Level": "2. Meetings",
                    "Subject": "All school leaders",
                    "Body": "including House Captains\/Leaders, Student Committee members and Student Leaders are invited to attend a meeting at 11am-11.30am on Thursday in the board room. There are Nelson City Council members attending to discuss school and community safety on Nayland Road.",
                    "Teacher": "DHD",
                    "MeetingDate": "00000000",
                    "MeetingTime": "000000",
                    "MeetingPlace": null
                },
                {
                    "uuid": "SUJGVXUUF7MC57JS5Z1FKKNX",
                    "DateStart": "20190530",
                    "DateFinish": "20190605",
                    "PublishWeb": true,
                    "Level": "4. Careers",
                    "Subject": "The Defence Force",
                    "Body": "will be at Nayland on Thursday 6 June to conduct a Leadership Exercises Programme between 11.30am-1.30pm. If you're generally interested in joining the Defence Force please let Ms Wall in the Careers office know to register.",
                    "Teacher": "DHD",
                    "MeetingDate": "00000000",
                    "MeetingTime": "000000",
                    "MeetingPlace": null
                },
                {
                    "uuid": "1XCJ4UDFNL17F1LM6BTQ0H4L",
                    "DateStart": "20190530",
                    "DateFinish": "20190603",
                    "PublishWeb": true,
                    "Level": "3. Cultural",
                    "Subject": "Haka practice",
                    "Body": "All Whanau class members and kapa haka participants to meet in the whare everyday at lunchtime to practice our new haka please. It is compulsory and important that we all be there please!",
                    "Teacher": "DHD",
                    "MeetingDate": "00000000",
                    "MeetingTime": "000000",
                    "MeetingPlace": null
                }
            ]
        }
    }
}